EPIAS 20201112
…
plot_2_df<-elec_df %>%
  mutate(Gn = as_date(Date))

plot_2_df

## # A tibble: 720 x 4
##    Date                  MCP   SMP Gn       
##    <dttm>              <dbl> <dbl> <date>    
##  1 2020-09-01 00:00:00 30239 33239 2020-09-01
##  2 2020-09-01 01:00:00 30025 32525 2020-09-01
##  3 2020-09-01 02:00:00 29264 31764 2020-09-01
##  4 2020-09-01 03:00:00 29000 32000 2020-09-01
##  5 2020-09-01 04:00:00 29000 33000 2020-09-01
##  6 2020-09-01 05:00:00 29000 33900 2020-09-01
##  7 2020-09-01 06:00:00 29201 34201 2020-09-01
##  8 2020-09-01 07:00:00 29539 34500 2020-09-01
##  9 2020-09-01 08:00:00 30736 33888 2020-09-01
## 10 2020-09-01 09:00:00 31482 34582 2020-09-01
## #  with 710 more rows
…
plot_3_df<- elec_df %>%
  mutate(Date= as_date(Date)) %>%
  group_by(Date) %>%
  summarise(MCP= mean(MCP), SMP=mean(SMP)) %>%
  ungroup() %>%
  pivot_longer(cols=c(MCP, SMP), names_to="Market_Imbalance", values_to="Prices")

## `summarise()` ungrouping output (override with `.groups` argument)

plot_3_df

## # A tibble: 60 x 3
##    Date       Market_Imbalance Prices
##    <date>     <chr>             <dbl>
##  1 2020-09-01 MCP              32203.
##  2 2020-09-01 SMP              37036.
##  3 2020-09-02 MCP              33804.
##  4 2020-09-02 SMP              38894.
##  5 2020-09-03 MCP              33749.
##  6 2020-09-03 SMP              38371.
##  7 2020-09-04 MCP              30880.
##  8 2020-09-04 SMP              34445.
##  9 2020-09-05 MCP              29006.
## 10 2020-09-05 SMP              22948.
## #  with 50 more rows
